#8193685
Time,DC Watts PH1 PPA1,DC Current PH1 PPA1,DC Voltage PH1 PPA1,Peak Current PH1 PPA1,Peak Voltage PH1 PPA1
19:09:01.379,1.92030E0,-3.63730E-1,-5.27950E0,-7.11440E-1,-5.64910E0
19:09:02.379,1.88540E0,-3.57000E-1,-5.28120E0,-4.99020E-1,-5.66630E0
19:09:03.380,1.88790E0,-3.57480E-1,-5.28100E0,-5.21940E-1,-5.66790E0
19:09:04.380,2.27100E0,-4.30510E-1,-5.27530E0,-6.96890E-1,-5.68920E0
19:09:05.380,2.24820E0,-4.26110E-1,-5.27620E0,-6.31710E-1,-5.67780E0
19:09:07.380,2.28980E0,-4.33990E-1,-5.27610E0,-7.02160E-1,-5.71380E0
19:09:09.380,2.26660E0,-4.29630E-1,-5.27560E0,-6.72620E-1,-5.68040E0
19:09:11.381,2.28460E0,-4.33120E-1,-5.27480E0,-7.12020E-1,-5.69490E0
19:09:12.381,2.29050E0,-4.34290E-1,-5.27410E0,-6.99220E-1,-5.70070E0
19:09:14.381,2.26560E0,-4.29350E-1,-5.27690E0,-6.21820E-1,-5.66630E0
19:09:15.381,2.28820E0,-4.33570E-1,-5.27760E0,-6.88380E-1,-5.72200E0
19:09:16.428,2.28660E0,-4.33370E-1,-5.27630E0,-6.76070E-1,-5.71380E0
19:09:17.381,2.28860E0,-4.33830E-1,-5.27530E0,-6.93880E-1,-5.69860E0
19:09:18.397,2.28410E0,-4.33030E-1,-5.27480E0,-6.76510E-1,-5.68940E0
19:09:19.382,2.29750E0,-4.35590E-1,-5.27440E0,-6.97470E-1,-5.65490E0
19:09:20.413,2.29170E0,-4.34640E-1,-5.27250E0,-7.00960E-1,-5.67780E0
19:09:21.382,2.29250E0,-4.34760E-1,-5.27300E0,-6.87810E-1,-5.67940E0
19:09:22.398,2.28690E0,-4.33670E-1,-5.27340E0,-6.82240E-1,-5.67510E0
19:09:23.382,2.29130E0,-4.34310E-1,-5.27570E0,-6.95140E-1,-5.67780E0
19:09:24.382,2.28840E0,-4.33530E-1,-5.27840E0,-6.75620E-1,-5.58960E0
19:09:25.398,2.30090E0,-4.35470E-1,-5.28380E0,-6.60830E-1,-5.66250E0
19:09:27.383,2.27780E0,-4.31130E-1,-5.28320E0,-6.74800E-1,-5.69680E0
19:09:28.383,2.30470E0,-4.36100E-1,-5.28480E0,-6.81200E-1,-5.66250E0
19:09:29.383,2.29700E0,-4.34680E-1,-5.28450E0,-6.74900E-1,-5.67710E0
19:09:30.399,2.29610E0,-4.34520E-1,-5.28420E0,-6.81810E-1,-5.67470E0
19:09:32.383,2.30040E0,-4.35340E-1,-5.28410E0,-7.21940E-1,-5.74260E0
19:09:33.383,2.26910E0,-4.29250E-1,-5.28630E0,-6.09620E-1,-5.66820E0
19:09:34.399,2.29580E0,-4.34740E-1,-5.28080E0,-7.16120E-1,-5.68540E0
19:09:35.383,2.29550E0,-4.34670E-1,-5.28090E0,-7.13800E-1,-5.68010E0
19:09:36.399,2.27320E0,-4.30030E-1,-5.28630E0,-6.30570E-1,-5.70830E0
19:09:37.384,2.27730E0,-4.30800E-1,-5.28610E0,-6.45150E-1,-5.70200E0
19:09:38.400,2.29000E0,-4.33600E-1,-5.28130E0,-7.05830E-1,-5.69730E0
19:09:39.384,2.29370E0,-4.34340E-1,-5.28100E0,-7.04610E-1,-5.69310E0
19:09:40.400,2.29880E0,-4.34950E-1,-5.28530E0,-6.98760E-1,-5.70540E0
19:09:42.400,2.31100E0,-4.37530E-1,-5.28190E0,-6.87500E-1,-5.67670E0
19:09:43.384,2.29870E0,-4.35200E-1,-5.28200E0,-6.79420E-1,-5.67530E0
19:09:45.385,2.29610E0,-4.34560E-1,-5.28370E0,-6.73640E-1,-5.68540E0
19:09:46.400,2.29550E0,-4.34430E-1,-5.28380E0,-6.98660E-1,-5.69110E0
19:09:48.401,2.27520E0,-4.30700E-1,-5.28260E0,-6.72470E-1,-5.64530E0
19:09:49.385,2.29640E0,-4.34850E-1,-5.28090E0,-7.03980E-1,-5.66980E0
19:09:50.401,2.29620E0,-4.34850E-1,-5.28040E0,-7.01490E-1,-5.67700E0
19:09:51.385,2.29340E0,-4.34320E-1,-5.28050E0,-6.88560E-1,-5.68730E0
19:09:53.386,2.28440E0,-4.32400E-1,-5.28310E0,-6.22540E-1,-5.69730E0
19:09:54.401,2.30720E0,-4.36930E-1,-5.28050E0,-6.82950E-1,-5.69110E0
19:09:56.401,2.30530E0,-4.36610E-1,-5.28010E0,-7.06810E-1,-5.69110E0
19:09:57.386,2.33060E0,-4.41480E-1,-5.27910E0,-6.99240E-1,-5.68540E0
19:09:58.402,2.31440E0,-4.38430E-1,-5.27890E0,-6.99250E-1,-5.68180E0
19:09:59.386,2.30580E0,-4.36770E-1,-5.27910E0,-6.78780E-1,-5.68080E0
19:10:00.402,2.30030E0,-4.35750E-1,-5.27890E0,-6.64330E-1,-5.69110E0
19:10:02.402,2.30700E0,-4.37000E-1,-5.27920E0,-6.95170E-1,-5.69680E0
19:10:03.387,2.27270E0,-4.30810E-1,-5.27530E0,-6.07880E-1,-5.69110E0
19:10:04.402,2.29900E0,-4.35800E-1,-5.27540E0,-7.10880E-1,-5.68540E0
19:10:05.387,2.29850E0,-4.35690E-1,-5.27560E0,-7.06730E-1,-5.69150E0
19:10:06.418,2.28220E0,-4.32280E-1,-5.27930E0,-6.23410E-1,-5.66160E0
19:10:07.387,2.28410E0,-4.32670E-1,-5.27920E0,-6.41260E-1,-5.67900E0
19:10:08.403,2.28650E0,-4.33130E-1,-5.27910E0,-6.50200E-1,-5.68080E0
19:10:09.387,2.30480E0,-4.36630E-1,-5.27860E0,-6.30590E-1,-5.65940E0
19:10:11.387,1.90890E0,-3.61090E-1,-5.28650E0,-5.86250E-1,-5.72260E0
19:10:13.388,1.89340E0,-3.58440E-1,-5.28230E0,-5.46440E-1,-5.67670E0
19:10:14.403,1.89250E0,-3.58000E-1,-5.28640E0,-5.29890E-1,-5.66820E0
19:10:15.388,1.89930E0,-3.59310E-1,-5.28610E0,-5.62970E-1,-5.67310E0
19:10:16.404,1.89040E0,-3.57720E-1,-5.28460E0,-6.28830E-1,-5.69110E0
19:10:17.388,1.89320E0,-3.58220E-1,-5.28500E0,-5.96040E-1,-5.68260E0
19:10:18.404,1.89190E0,-3.57990E-1,-5.28490E0,-5.91820E-1,-5.68700E0
19:10:19.388,2.33420E0,-4.42020E-1,-5.28080E0,-7.17280E-1,-5.66250E0
19:10:20.404,2.31090E0,-4.37650E-1,-5.28020E0,-6.78530E-1,-5.68200E0
19:10:21.389,2.30450E0,-4.36480E-1,-5.27970E0,-6.69080E-1,-5.67640E0
19:10:22.404,2.32140E0,-4.40130E-1,-5.27440E0,-7.19030E-1,-5.70250E0
19:10:24.405,2.27750E0,-4.31460E-1,-5.27850E0,-6.03110E-1,-5.39060E0
19:10:25.405,2.27010E0,-4.30040E-1,-5.27890E0,-6.38860E-1,-5.65510E0
19:10:27.389,2.28570E0,-4.32980E-1,-5.27890E0,-6.19850E-1,-5.69000E0
19:10:28.421,2.28810E0,-4.33430E-1,-5.27900E0,-6.44490E-1,-5.68040E0
19:10:29.390,2.29180E0,-4.34120E-1,-5.27920E0,-6.54070E-1,-5.68270E0
19:10:30.421,2.29130E0,-4.34010E-1,-5.27930E0,-6.42970E-1,-5.69120E0
19:10:31.390,2.28630E0,-4.33080E-1,-5.27920E0,-6.31400E-1,-5.68460E0
19:10:32.406,2.32090E0,-4.39500E-1,-5.28070E0,-7.11030E-1,-5.66080E0
19:10:34.406,2.29720E0,-4.35080E-1,-5.27980E0,-7.00470E-1,-5.66060E0
19:10:35.390,2.28960E0,-4.33640E-1,-5.28000E0,-6.65940E-1,-5.66180E0
19:10:36.406,2.29590E0,-4.34840E-1,-5.27980E0,-6.77590E-1,-5.66210E0
19:10:37.391,2.27270E0,-4.30350E-1,-5.28110E0,-5.95800E-1,-5.70660E0
19:10:38.406,2.30270E0,-4.36140E-1,-5.27970E0,-7.04040E-1,-5.64930E0
19:10:39.391,2.30030E0,-4.35680E-1,-5.27970E0,-7.03430E-1,-5.66000E0
19:10:40.407,2.27160E0,-4.30500E-1,-5.27670E0,-6.19660E-1,-5.67800E0
19:10:41.391,2.28090E0,-4.32240E-1,-5.27690E0,-6.28790E-1,-5.68750E0
19:10:42.407,2.27890E0,-4.31870E-1,-5.27690E0,-6.69710E-1,-5.71230E0
19:10:43.391,2.28800E0,-4.33590E-1,-5.27680E0,-6.79600E-1,-5.70600E0
19:10:44.423,2.27550E0,-4.31070E-1,-5.27870E0,-6.34710E-1,-5.65090E0
19:10:45.391,2.27780E0,-4.31400E-1,-5.28000E0,-6.39740E-1,-5.66730E0
19:10:47.392,2.31940E0,-4.38850E-1,-5.28510E0,-7.03950E-1,-5.67720E0
19:10:48.407,2.28060E0,-4.31810E-1,-5.28130E0,-6.47010E-1,-5.70660E0
19:10:49.392,2.28650E0,-4.32960E-1,-5.28120E0,-6.46780E-1,-5.70030E0
19:10:51.392,2.28090E0,-4.31600E-1,-5.28470E0,-6.23270E-1,-5.70410E0
19:10:53.393,2.31500E0,-4.38030E-1,-5.28500E0,-7.01030E-1,-5.68080E0
19:10:55.393,2.28160E0,-4.31650E-1,-5.28570E0,-6.31310E-1,-5.66460E0
19:10:56.409,2.28740E0,-4.32790E-1,-5.28530E0,-6.38290E-1,-5.67370E0
19:10:57.393,2.28940E0,-4.33180E-1,-5.28500E0,-6.41900E-1,-5.67480E0
19:10:58.409,2.32670E0,-4.40330E-1,-5.28400E0,-7.24720E-1,-5.70940E0
19:10:59.393,2.30930E0,-4.36940E-1,-5.28520E0,-6.93250E-1,-5.69850E0
19:11:00.409,2.30680E0,-4.36430E-1,-5.28570E0,-6.79060E-1,-5.70580E0
19:11:01.425,2.27410E0,-4.30340E-1,-5.28440E0,-6.55160E-1,-5.67800E0
19:11:03.394,2.27080E0,-4.29480E-1,-5.28730E0,-6.12670E-1,-5.72380E0
19:11:04.409,2.32950E0,-4.40640E-1,-5.28670E0,-7.14520E-1,-5.66080E0
19:11:06.410,2.27750E0,-4.30930E-1,-5.28520E0,-6.29550E-1,-5.70090E0
19:11:07.394,2.27060E0,-4.30080E-1,-5.27960E0,-6.06270E-1,-5.67800E0
19:11:08.410,2.32110E0,-4.39930E-1,-5.27600E0,-7.05210E-1,-5.69510E0
19:11:10.410,2.27080E0,-4.30040E-1,-5.28050E0,-6.16880E-1,-5.66360E0
19:11:11.395,2.28160E0,-4.32080E-1,-5.28060E0,-6.34170E-1,-5.66580E0
19:11:12.410,2.27080E0,-4.29870E-1,-5.28240E0,-6.05110E-1,-5.71810E0
19:11:13.395,2.30670E0,-4.36780E-1,-5.28110E0,-7.10440E-1,-5.66080E0
19:11:14.411,2.30380E0,-4.36230E-1,-5.28110E0,-7.07430E-1,-5.66580E0
19:11:15.426,2.27960E0,-4.31490E-1,-5.28300E0,-6.07160E-1,-5.68990E0
19:11:17.395,2.27290E0,-4.30060E-1,-5.28520E0,-6.13260E-1,-5.67800E0
19:11:18.411,2.26970E0,-4.29670E-1,-5.28240E0,-5.94630E-1,-5.70090E0
19:11:19.395,2.27750E0,-4.31130E-1,-5.28260E0,-6.22420E-1,-5.69650E0
19:11:20.411,2.28280E0,-4.32150E-1,-5.28250E0,-6.28620E-1,-5.69810E0
19:11:21.396,2.29150E0,-4.33800E-1,-5.28240E0,-6.44060E-1,-5.69240E0
19:11:22.411,2.27360E0,-4.30530E-1,-5.28090E0,-6.28410E-1,-5.67400E0
19:11:23.396,2.28360E0,-4.32410E-1,-5.28110E0,-6.38580E-1,-5.67000E0
19:11:24.412,2.28570E0,-4.32970E-1,-5.27910E0,-6.26470E-1,-5.56190E0
19:11:25.396,2.18830E0,-4.14520E-1,-5.27910E0,-6.24080E-1,-5.47010E0
19:11:26.412,1.88160E0,-3.56280E-1,-5.28130E0,-4.87950E-1,-5.40120E0
19:11:27.396,1.88700E0,-3.57300E-1,-5.28130E0,-5.05080E-1,-5.39190E0
19:11:28.412,1.89120E0,-3.58060E-1,-5.28180E0,-5.17030E-1,-5.39070E0
19:11:29.397,1.89150E0,-3.58130E-1,-5.28150E0,-5.28070E-1,-5.37580E0
19:11:30.412,1.88990E0,-3.57830E-1,-5.28150E0,-5.18370E-1,-5.37400E0
19:11:31.428,1.90070E0,-3.59930E-1,-5.28090E0,-5.88540E-1,-5.68500E0
