PID de las metricas: 1988
Governor:   performance
Freq [MHz]: 1000000
Temp [ºC]: 38628
volt=1.3500V
Governor:   performance
Freq [MHz]: 1000000
Temp [ºC]: 41856
volt=1.3500V
Governor:   performance
Freq [MHz]: 1000000
Temp [ºC]: 43470
volt=1.3500V
Governor:   performance
Freq [MHz]: 1000000
Temp [ºC]: 44546
volt=1.3500V
Governor:   performance
Freq [MHz]: 1000000
Temp [ºC]: 45084
volt=1.3500V
Governor:   performance
Freq [MHz]: 1000000
Temp [ºC]: 45622
volt=1.3500V
Governor:   performance
Freq [MHz]: 1000000
Temp [ºC]: 46160
volt=1.3500V
Governor:   performance
Freq [MHz]: 1000000
Temp [ºC]: 46160
volt=1.3500V
Governor:   performance
Freq [MHz]: 1000000
Temp [ºC]: 46160
volt=1.3500V
Governor:   performance
Freq [MHz]: 1000000
Temp [ºC]: 47236
volt=1.3500V
Governor:   performance
Freq [MHz]: 1000000
Temp [ºC]: 47236
volt=1.3500V
Governor:   performance
Freq [MHz]: 1000000
Temp [ºC]: 47774
volt=1.3500V
Governor:   performance
Freq [MHz]: 1000000
Temp [ºC]: 47236
volt=1.3500V
Governor:   performance
Freq [MHz]: 1000000
Temp [ºC]: 47236
volt=1.3500V
Governor:   performance
Freq [MHz]: 1000000
Temp [ºC]: 47774
volt=1.3500V
Governor:   performance
Freq [MHz]: 1000000
Temp [ºC]: 47774
volt=1.3500V
Governor:   performance
Freq [MHz]: 1000000
Temp [ºC]: 47774
volt=1.3500V
Governor:   performance
Freq [MHz]: 1000000
Temp [ºC]: 48312
volt=1.3500V
Governor:   performance
Freq [MHz]: 1000000
Temp [ºC]: 48312
volt=1.3500V
Governor:   performance
Freq [MHz]: 1000000
Temp [ºC]: 48850
volt=1.3500V
Governor:   performance
Freq [MHz]: 1000000
Temp [ºC]: 49388
volt=1.3500V
Governor:   performance
Freq [MHz]: 1000000
Temp [ºC]: 48850
volt=1.3500V
Governor:   performance
Freq [MHz]: 1000000
Temp [ºC]: 48850
volt=1.3500V
Governor:   performance
Freq [MHz]: 1000000
Temp [ºC]: 48850
volt=1.3500V
Governor:   performance
Freq [MHz]: 1000000
Temp [ºC]: 49926
volt=1.3500V
Governor:   performance
Freq [MHz]: 1000000
Temp [ºC]: 49388
volt=1.3500V
Governor:   performance
Freq [MHz]: 1000000
Temp [ºC]: 49388
volt=1.3500V
Governor:   performance
Freq [MHz]: 1000000
Temp [ºC]: 49388
volt=1.3500V
Governor:   performance
Freq [MHz]: 1000000
Temp [ºC]: 49388
volt=1.3500V
Governor:   performance
Freq [MHz]: 1000000
Temp [ºC]: 49926
volt=1.3500V
Governor:   performance
Freq [MHz]: 1000000
Temp [ºC]: 49388
volt=1.3500V
Governor:   performance
Freq [MHz]: 1000000
Temp [ºC]: 49388
volt=1.3500V
Governor:   performance
Freq [MHz]: 1000000
Temp [ºC]: 50464
volt=1.3500V
Governor:   performance
Freq [MHz]: 1000000
Temp [ºC]: 49926
volt=1.3500V
Governor:   performance
Freq [MHz]: 1000000
Temp [ºC]: 50464
volt=1.3500V
Governor:   performance
Freq [MHz]: 1000000
Temp [ºC]: 49388
volt=1.3500V
Governor:   performance
Freq [MHz]: 1000000
Temp [ºC]: 49926
volt=1.3500V
Governor:   performance
Freq [MHz]: 1000000
Temp [ºC]: 50464
volt=1.3500V
Governor:   performance
Freq [MHz]: 1000000
Temp [ºC]: 50464
volt=1.3500V
Governor:   performance
Freq [MHz]: 1000000
Temp [ºC]: 50464
volt=1.3500V
Governor:   performance
Freq [MHz]: 1000000
Temp [ºC]: 50464
volt=1.3500V
Governor:   performance
Freq [MHz]: 1000000
Temp [ºC]: 50464
volt=1.3500V
Governor:   performance
Freq [MHz]: 1000000
Temp [ºC]: 50464
volt=1.3500V
Governor:   performance
Freq [MHz]: 1000000
Temp [ºC]: 50464
volt=1.3500V
Governor:   performance
Freq [MHz]: 1000000
Temp [ºC]: 50464
volt=1.3500V
Governor:   performance
Freq [MHz]: 1000000
Temp [ºC]: 50464
volt=1.3500V
Governor:   performance
Freq [MHz]: 1000000
Temp [ºC]: 50464
volt=1.3500V
Governor:   performance
Freq [MHz]: 1000000
Temp [ºC]: 50464
volt=1.3500V
Governor:   performance
Freq [MHz]: 1000000
Temp [ºC]: 50464
volt=1.3500V
Governor:   performance
Freq [MHz]: 1000000
Temp [ºC]: 50464
volt=1.3500V
Governor:   performance
Freq [MHz]: 1000000
Temp [ºC]: 51002
volt=1.3500V
Governor:   performance
Freq [MHz]: 1000000
Temp [ºC]: 49926
volt=1.3500V
Governor:   performance
Freq [MHz]: 1000000
Temp [ºC]: 50464
volt=1.3500V
Governor:   performance
Freq [MHz]: 1000000
Temp [ºC]: 50464
volt=1.3500V
Governor:   performance
Freq [MHz]: 1000000
Temp [ºC]: 51540
volt=1.3500V
Governor:   performance
Freq [MHz]: 1000000
Temp [ºC]: 51002
volt=1.3500V
Governor:   performance
Freq [MHz]: 1000000
Temp [ºC]: 50464
volt=1.3500V
Governor:   performance
Freq [MHz]: 1000000
Temp [ºC]: 51540
volt=1.3500V
Governor:   performance
Freq [MHz]: 1000000
Temp [ºC]: 50464
volt=1.3500V
Governor:   performance
Freq [MHz]: 1000000
Temp [ºC]: 51002
volt=1.3500V
Governor:   performance
Freq [MHz]: 1000000
Temp [ºC]: 50464
volt=1.3500V
Governor:   performance
Freq [MHz]: 1000000
Temp [ºC]: 50464
volt=1.3500V
Governor:   performance
Freq [MHz]: 1000000
Temp [ºC]: 51540
volt=1.3500V
Governor:   performance
Freq [MHz]: 1000000
Temp [ºC]: 51540
volt=1.3500V
Governor:   performance
Freq [MHz]: 1000000
Temp [ºC]: 51540
volt=1.3500V
Governor:   performance
Freq [MHz]: 1000000
Temp [ºC]: 50464
volt=1.3500V
Governor:   performance
Freq [MHz]: 1000000
Tiempo inicial: lun abr  1 00:13:27 CEST 2019, Tiempo final: lun abr  1 00:14:42 CEST 2019
