PID de las metricas: 1029
Governor:   performance
Freq [MHz]: 1100000
Temp [ºC]: 51540
volt=1.2813V
Governor:   performance
Freq [MHz]: 1100000
Temp [ºC]: 53692
volt=1.2813V
Governor:   performance
Freq [MHz]: 1100000
Temp [ºC]: 54768
volt=1.2813V
Governor:   performance
Freq [MHz]: 1100000
Temp [ºC]: 56920
volt=1.2813V
Governor:   performance
Freq [MHz]: 1100000
Temp [ºC]: 57996
volt=1.2813V
Governor:   performance
Freq [MHz]: 1100000
Temp [ºC]: 57996
volt=1.2813V
Governor:   performance
Freq [MHz]: 1100000
Temp [ºC]: 58534
volt=1.2813V
Governor:   performance
Freq [MHz]: 1100000
Temp [ºC]: 59072
volt=1.2813V
Governor:   performance
Freq [MHz]: 1100000
Temp [ºC]: 59072
volt=1.2813V
Governor:   performance
Freq [MHz]: 1100000
Temp [ºC]: 60148
volt=1.2813V
Governor:   performance
Freq [MHz]: 1100000
Temp [ºC]: 60148
volt=1.2813V
Governor:   performance
Freq [MHz]: 1100000
Temp [ºC]: 60686
volt=1.2813V
Governor:   performance
Freq [MHz]: 1100000
Temp [ºC]: 61224
volt=1.2813V
Governor:   performance
Freq [MHz]: 1100000
Temp [ºC]: 61224
volt=1.2813V
Governor:   performance
Freq [MHz]: 1100000
Temp [ºC]: 62300
volt=1.2813V
Governor:   performance
Freq [MHz]: 1100000
Temp [ºC]: 61762
volt=1.2813V
Governor:   performance
Freq [MHz]: 1100000
Temp [ºC]: 61762
volt=1.2813V
Governor:   performance
Freq [MHz]: 1100000
Temp [ºC]: 62300
volt=1.2813V
Governor:   performance
Freq [MHz]: 1100000
Temp [ºC]: 62300
volt=1.2813V
Governor:   performance
Freq [MHz]: 1100000
Temp [ºC]: 62300
volt=1.2813V
Governor:   performance
Freq [MHz]: 1100000
Temp [ºC]: 62300
volt=1.2813V
Governor:   performance
Freq [MHz]: 1100000
Temp [ºC]: 62838
volt=1.2813V
Governor:   performance
Freq [MHz]: 1100000
Temp [ºC]: 62300
volt=1.2813V
Governor:   performance
Freq [MHz]: 1100000
Temp [ºC]: 63376
volt=1.2813V
Governor:   performance
Freq [MHz]: 1100000
Temp [ºC]: 63376
volt=1.2813V
Governor:   performance
Freq [MHz]: 1100000
Temp [ºC]: 63376
volt=1.2813V
Governor:   performance
Freq [MHz]: 1100000
Temp [ºC]: 63914
volt=1.2813V
Governor:   performance
Freq [MHz]: 1100000
Temp [ºC]: 63376
volt=1.2813V
Governor:   performance
Freq [MHz]: 1100000
Temp [ºC]: 63914
volt=1.2813V
Governor:   performance
Freq [MHz]: 1100000
Temp [ºC]: 63914
volt=1.2813V
Governor:   performance
Freq [MHz]: 1100000
Temp [ºC]: 64452
volt=1.2813V
Governor:   performance
Freq [MHz]: 1100000
Temp [ºC]: 64452
volt=1.2813V
Governor:   performance
Freq [MHz]: 1100000
Temp [ºC]: 64452
volt=1.2813V
Governor:   performance
Freq [MHz]: 1100000
Temp [ºC]: 64990
volt=1.2813V
Governor:   performance
Freq [MHz]: 1100000
Temp [ºC]: 64990
volt=1.2813V
Governor:   performance
Freq [MHz]: 1100000
Temp [ºC]: 64452
volt=1.2813V
Governor:   performance
Freq [MHz]: 1100000
Temp [ºC]: 64452
volt=1.2813V
Governor:   performance
Freq [MHz]: 1100000
Temp [ºC]: 64452
volt=1.2813V
Governor:   performance
Freq [MHz]: 1100000
Temp [ºC]: 64452
volt=1.2813V
Governor:   performance
Freq [MHz]: 1100000
Temp [ºC]: 64990
volt=1.2813V
Governor:   performance
Freq [MHz]: 1100000
Temp [ºC]: 64990
volt=1.2813V
Governor:   performance
Freq [MHz]: 1100000
Temp [ºC]: 64990
volt=1.2813V
Governor:   performance
Freq [MHz]: 1100000
Temp [ºC]: 64990
volt=1.2813V
Governor:   performance
Freq [MHz]: 1100000
Temp [ºC]: 65528
volt=1.2813V
Governor:   performance
Freq [MHz]: 1100000
Temp [ºC]: 65528
volt=1.2813V
Governor:   performance
Freq [MHz]: 1100000
Temp [ºC]: 65528
volt=1.2813V
Governor:   performance
Freq [MHz]: 1100000
Temp [ºC]: 64990
volt=1.2813V
Governor:   performance
Freq [MHz]: 1100000
Temp [ºC]: 65528
volt=1.2813V
Governor:   performance
Freq [MHz]: 1100000
Temp [ºC]: 65528
volt=1.2813V
Governor:   performance
Freq [MHz]: 1100000
Temp [ºC]: 65528
volt=1.2813V
Governor:   performance
Freq [MHz]: 1100000
Temp [ºC]: 66066
volt=1.2813V
Governor:   performance
Freq [MHz]: 1100000
Temp [ºC]: 65528
volt=1.2813V
Governor:   performance
Freq [MHz]: 1100000
Temp [ºC]: 65528
volt=1.2813V
Governor:   performance
Freq [MHz]: 1100000
Temp [ºC]: 64990
volt=1.2813V
Governor:   performance
Freq [MHz]: 1100000
Temp [ºC]: 64990
volt=1.2813V
Governor:   performance
Freq [MHz]: 1100000
Temp [ºC]: 65528
volt=1.2813V
Governor:   performance
Freq [MHz]: 1100000
Temp [ºC]: 65528
volt=1.2813V
Governor:   performance
Freq [MHz]: 1100000
Temp [ºC]: 66066
volt=1.2813V
Governor:   performance
Freq [MHz]: 1100000
Temp [ºC]: 66066
volt=1.2813V
Governor:   performance
Freq [MHz]: 1100000
Temp [ºC]: 65528
volt=1.2813V
Governor:   performance
Freq [MHz]: 1100000
Temp [ºC]: 65528
volt=1.2813V
Governor:   performance
Freq [MHz]: 1100000
Temp [ºC]: 65528
volt=1.2813V
Governor:   performance
Freq [MHz]: 1100000
Temp [ºC]: 66604
volt=1.2813V
Governor:   performance
Freq [MHz]: 1100000
Temp [ºC]: 66066
volt=1.2813V
Governor:   performance
Freq [MHz]: 1100000
Temp [ºC]: 66066
volt=1.2813V
Governor:   performance
Freq [MHz]: 1100000
Temp [ºC]: 66604
volt=1.2813V
Governor:   performance
Freq [MHz]: 1100000
Temp [ºC]: 66604
volt=1.2813V
Governor:   performance
Freq [MHz]: 1100000
Temp [ºC]: 66604
volt=1.2813V
Governor:   performance
Freq [MHz]: 1100000
Temp [ºC]: 66066
volt=1.2813V
Governor:   performance
Freq [MHz]: 1100000
Temp [ºC]: 66604
volt=1.2813V
Governor:   performance
Freq [MHz]: 1100000
Temp [ºC]: 66604
volt=1.2813V
Governor:   performance
Freq [MHz]: 1100000
Temp [ºC]: 66604
volt=1.2813V
Governor:   performance
Freq [MHz]: 1100000
Temp [ºC]: 66604
volt=1.2813V
Governor:   performance
Freq [MHz]: 1100000
Temp [ºC]: 66604
volt=1.2813V
Governor:   performance
Freq [MHz]: 1100000
Temp [ºC]: 66604
volt=1.2813V
