PID de las metricas: 1527
Governor:   performance
Freq [MHz]: 700000
Temp [ºC]: 47236
volt=1.2813V
Governor:   performance
Freq [MHz]: 700000
Temp [ºC]: 48312
volt=1.2813V
Governor:   performance
Freq [MHz]: 700000
Temp [ºC]: 48850
volt=1.2813V
Governor:   performance
Freq [MHz]: 700000
Temp [ºC]: 49926
volt=1.2813V
Governor:   performance
Freq [MHz]: 700000
Temp [ºC]: 49926
volt=1.2813V
Governor:   performance
Freq [MHz]: 700000
Temp [ºC]: 51540
volt=1.2813V
Governor:   performance
Freq [MHz]: 700000
Temp [ºC]: 51540
volt=1.2813V
Governor:   performance
Freq [MHz]: 700000
Temp [ºC]: 51540
volt=1.2813V
Governor:   performance
Freq [MHz]: 700000
Temp [ºC]: 52078
volt=1.2813V
Governor:   performance
Freq [MHz]: 700000
Temp [ºC]: 52078
volt=1.2813V
Governor:   performance
Freq [MHz]: 700000
Temp [ºC]: 52616
volt=1.2813V
Governor:   performance
Freq [MHz]: 700000
Temp [ºC]: 53154
volt=1.2813V
Governor:   performance
Freq [MHz]: 700000
Temp [ºC]: 53154
volt=1.2813V
Governor:   performance
Freq [MHz]: 700000
Temp [ºC]: 53692
volt=1.2813V
Governor:   performance
Freq [MHz]: 700000
Temp [ºC]: 53692
volt=1.2813V
Governor:   performance
Freq [MHz]: 700000
Temp [ºC]: 53692
volt=1.2813V
Governor:   performance
Freq [MHz]: 700000
Temp [ºC]: 53692
volt=1.2813V
Governor:   performance
Freq [MHz]: 700000
Temp [ºC]: 53692
volt=1.2813V
Governor:   performance
Freq [MHz]: 700000
Temp [ºC]: 53692
volt=1.2813V
Governor:   performance
Freq [MHz]: 700000
Temp [ºC]: 53692
volt=1.2813V
Governor:   performance
Freq [MHz]: 700000
Temp [ºC]: 54768
volt=1.2813V
Governor:   performance
Freq [MHz]: 700000
Temp [ºC]: 54230
volt=1.2813V
Governor:   performance
Freq [MHz]: 700000
Temp [ºC]: 53692
volt=1.2813V
Governor:   performance
Freq [MHz]: 700000
Temp [ºC]: 53692
volt=1.2813V
Governor:   performance
Freq [MHz]: 700000
Temp [ºC]: 54768
volt=1.2813V
Governor:   performance
Freq [MHz]: 700000
Temp [ºC]: 54230
volt=1.2813V
Governor:   performance
Freq [MHz]: 700000
Temp [ºC]: 54230
volt=1.2813V
Governor:   performance
Freq [MHz]: 700000
Temp [ºC]: 54768
volt=1.2813V
Governor:   performance
Freq [MHz]: 700000
Temp [ºC]: 54768
volt=1.2813V
Governor:   performance
Freq [MHz]: 700000
Temp [ºC]: 54768
volt=1.2813V
Governor:   performance
Freq [MHz]: 700000
Temp [ºC]: 54768
volt=1.2813V
Governor:   performance
Freq [MHz]: 700000
Temp [ºC]: 54768
volt=1.2813V
Governor:   performance
Freq [MHz]: 700000
Temp [ºC]: 55844
volt=1.2813V
Governor:   performance
Freq [MHz]: 700000
Temp [ºC]: 55306
volt=1.2813V
Governor:   performance
Freq [MHz]: 700000
Temp [ºC]: 55844
volt=1.2813V
Governor:   performance
Freq [MHz]: 700000
Temp [ºC]: 55844
volt=1.2813V
Governor:   performance
Freq [MHz]: 700000
Temp [ºC]: 55306
volt=1.2813V
Governor:   performance
Freq [MHz]: 700000
Temp [ºC]: 55844
volt=1.2813V
Governor:   performance
Freq [MHz]: 700000
Temp [ºC]: 55306
volt=1.2813V
Governor:   performance
Freq [MHz]: 700000
Temp [ºC]: 55844
volt=1.2813V
Governor:   performance
Freq [MHz]: 700000
Temp [ºC]: 55844
volt=1.2813V
Governor:   performance
Freq [MHz]: 700000
Temp [ºC]: 55844
volt=1.2813V
Governor:   performance
Freq [MHz]: 700000
Temp [ºC]: 55844
volt=1.2813V
Governor:   performance
Freq [MHz]: 700000
Temp [ºC]: 54768
volt=1.2813V
Governor:   performance
Freq [MHz]: 700000
Temp [ºC]: 55844
volt=1.2813V
Governor:   performance
Freq [MHz]: 700000
Temp [ºC]: 55844
volt=1.2813V
Governor:   performance
Freq [MHz]: 700000
Temp [ºC]: 55844
volt=1.2813V
Governor:   performance
Freq [MHz]: 700000
Temp [ºC]: 55844
volt=1.2813V
Governor:   performance
Freq [MHz]: 700000
Temp [ºC]: 55844
volt=1.2813V
Governor:   performance
Freq [MHz]: 700000
Temp [ºC]: 56382
volt=1.2813V
Governor:   performance
Freq [MHz]: 700000
Temp [ºC]: 56382
volt=1.2813V
Governor:   performance
Freq [MHz]: 700000
Temp [ºC]: 56382
volt=1.2813V
Governor:   performance
Freq [MHz]: 700000
Temp [ºC]: 55844
volt=1.2813V
Governor:   performance
Freq [MHz]: 700000
Temp [ºC]: 56382
volt=1.2813V
Governor:   performance
Freq [MHz]: 700000
Temp [ºC]: 55844
volt=1.2813V
Governor:   performance
Freq [MHz]: 700000
Temp [ºC]: 56382
volt=1.2813V
Governor:   performance
Freq [MHz]: 700000
Temp [ºC]: 56382
volt=1.2813V
Governor:   performance
Freq [MHz]: 700000
Temp [ºC]: 56382
volt=1.2813V
Governor:   performance
Freq [MHz]: 700000
Temp [ºC]: 56920
volt=1.2813V
Governor:   performance
Freq [MHz]: 700000
Temp [ºC]: 56382
volt=1.2813V
Governor:   performance
Freq [MHz]: 700000
Temp [ºC]: 56382
volt=1.2813V
Governor:   performance
Freq [MHz]: 700000
Temp [ºC]: 56382
volt=1.2813V
Governor:   performance
Freq [MHz]: 700000
Temp [ºC]: 56382
volt=1.2813V
Governor:   performance
Freq [MHz]: 700000
Temp [ºC]: 55844
volt=1.2813V
Governor:   performance
Freq [MHz]: 700000
Temp [ºC]: 56920
volt=1.2813V
Governor:   performance
Freq [MHz]: 700000
Temp [ºC]: 56920
volt=1.2813V
Governor:   performance
Freq [MHz]: 700000
Temp [ºC]: 56920
volt=1.2813V
Governor:   performance
Freq [MHz]: 700000
Temp [ºC]: 56920
volt=1.2813V
Governor:   performance
Freq [MHz]: 700000
Temp [ºC]: 56382
volt=1.2813V
Governor:   performance
Freq [MHz]: 700000
Temp [ºC]: 56382
volt=1.2813V
Governor:   performance
Freq [MHz]: 700000
Temp [ºC]: 56382
volt=1.2813V
Governor:   performance
Freq [MHz]: 700000
Temp [ºC]: 56382
volt=1.2813V
Governor:   performance
Freq [MHz]: 700000
Temp [ºC]: 56920
volt=1.2813V
Governor:   performance
Freq [MHz]: 700000
Temp [ºC]: 56920
volt=1.2813V
Governor:   performance
Freq [MHz]: 700000
Temp [ºC]: 56920
volt=1.2813V
Governor:   performance
Freq [MHz]: 700000
Temp [ºC]: 56920
volt=1.2813V
Governor:   performance
Freq [MHz]: 700000
Temp [ºC]: 56920
volt=1.2813V
Governor:   performance
Freq [MHz]: 700000
Temp [ºC]: 56920
volt=1.2813V
Governor:   performance
Freq [MHz]: 700000
Temp [ºC]: 56920
volt=1.2813V
Governor:   performance
Freq [MHz]: 700000
Temp [ºC]: 56920
volt=1.2813V
Governor:   performance
Freq [MHz]: 700000
Temp [ºC]: 56920
volt=1.2813V
Governor:   performance
Freq [MHz]: 700000
Temp [ºC]: 56920
volt=1.2813V
Governor:   performance
Freq [MHz]: 700000
Temp [ºC]: 56920
volt=1.2813V
Governor:   performance
Freq [MHz]: 700000
Temp [ºC]: 56920
volt=1.2813V
Governor:   performance
Freq [MHz]: 700000
Temp [ºC]: 56920
volt=1.2813V
Governor:   performance
Freq [MHz]: 700000
Temp [ºC]: 57458
volt=1.2813V
