PID de las metricas: 2370
Governor:   performance
Freq [MHz]: 800000
Temp [ºC]: 46160
volt=1.2813V
Governor:   performance
Freq [MHz]: 800000
Temp [ºC]: 47774
volt=1.2813V
Governor:   performance
Freq [MHz]: 800000
Temp [ºC]: 49388
volt=1.2813V
Governor:   performance
Freq [MHz]: 800000
Temp [ºC]: 49388
volt=1.2813V
Governor:   performance
Freq [MHz]: 800000
Temp [ºC]: 50464
volt=1.2813V
Governor:   performance
Freq [MHz]: 800000
Temp [ºC]: 50464
volt=1.2813V
Governor:   performance
Freq [MHz]: 800000
Temp [ºC]: 51540
volt=1.2813V
Governor:   performance
Freq [MHz]: 800000
Temp [ºC]: 51540
volt=1.2813V
Governor:   performance
Freq [MHz]: 800000
Temp [ºC]: 52078
volt=1.2813V
Governor:   performance
Freq [MHz]: 800000
Temp [ºC]: 52616
volt=1.2813V
Governor:   performance
Freq [MHz]: 800000
Temp [ºC]: 52078
volt=1.2813V
Governor:   performance
Freq [MHz]: 800000
Temp [ºC]: 52616
volt=1.2813V
Governor:   performance
Freq [MHz]: 800000
Temp [ºC]: 52616
volt=1.2813V
Governor:   performance
Freq [MHz]: 800000
Temp [ºC]: 52616
volt=1.2813V
Governor:   performance
Freq [MHz]: 800000
Temp [ºC]: 52616
volt=1.2813V
Governor:   performance
Freq [MHz]: 800000
Temp [ºC]: 53154
volt=1.2813V
Governor:   performance
Freq [MHz]: 800000
Temp [ºC]: 53692
volt=1.2813V
Governor:   performance
Freq [MHz]: 800000
Temp [ºC]: 53692
volt=1.2813V
Governor:   performance
Freq [MHz]: 800000
Temp [ºC]: 53692
volt=1.2813V
Governor:   performance
Freq [MHz]: 800000
Temp [ºC]: 54230
volt=1.2813V
Governor:   performance
Freq [MHz]: 800000
Temp [ºC]: 54230
volt=1.2813V
Governor:   performance
Freq [MHz]: 800000
Temp [ºC]: 54230
volt=1.2813V
Governor:   performance
Freq [MHz]: 800000
Temp [ºC]: 54768
volt=1.2813V
Governor:   performance
Freq [MHz]: 800000
Temp [ºC]: 54768
volt=1.2813V
Governor:   performance
Freq [MHz]: 800000
Temp [ºC]: 54768
volt=1.2813V
Governor:   performance
Freq [MHz]: 800000
Temp [ºC]: 55306
volt=1.2813V
Governor:   performance
Freq [MHz]: 800000
Temp [ºC]: 54768
volt=1.2813V
Governor:   performance
Freq [MHz]: 800000
Temp [ºC]: 54768
volt=1.2813V
Governor:   performance
Freq [MHz]: 800000
Temp [ºC]: 55306
volt=1.2813V
Governor:   performance
Freq [MHz]: 800000
Temp [ºC]: 55844
volt=1.2813V
Governor:   performance
Freq [MHz]: 800000
Temp [ºC]: 55844
volt=1.2813V
Governor:   performance
Freq [MHz]: 800000
Temp [ºC]: 55844
volt=1.2813V
Governor:   performance
Freq [MHz]: 800000
Temp [ºC]: 55844
volt=1.2813V
Governor:   performance
Freq [MHz]: 800000
Temp [ºC]: 55844
volt=1.2813V
Governor:   performance
Freq [MHz]: 800000
Temp [ºC]: 55844
volt=1.2813V
Governor:   performance
Freq [MHz]: 800000
Temp [ºC]: 55306
volt=1.2813V
Governor:   performance
Freq [MHz]: 800000
Temp [ºC]: 55844
volt=1.2813V
Governor:   performance
Freq [MHz]: 800000
Temp [ºC]: 55844
volt=1.2813V
Governor:   performance
Freq [MHz]: 800000
Temp [ºC]: 55844
volt=1.2813V
Governor:   performance
Freq [MHz]: 800000
Temp [ºC]: 55844
volt=1.2813V
Governor:   performance
Freq [MHz]: 800000
Temp [ºC]: 55844
volt=1.2813V
Governor:   performance
Freq [MHz]: 800000
Temp [ºC]: 55844
volt=1.2813V
Governor:   performance
Freq [MHz]: 800000
Temp [ºC]: 55844
volt=1.2813V
Governor:   performance
Freq [MHz]: 800000
Temp [ºC]: 55844
volt=1.2813V
Governor:   performance
Freq [MHz]: 800000
Temp [ºC]: 56382
volt=1.2813V
Governor:   performance
Freq [MHz]: 800000
Temp [ºC]: 56382
volt=1.2813V
Governor:   performance
Freq [MHz]: 800000
Temp [ºC]: 55844
volt=1.2813V
Governor:   performance
Freq [MHz]: 800000
Temp [ºC]: 56382
volt=1.2813V
Governor:   performance
Freq [MHz]: 800000
Temp [ºC]: 55844
volt=1.2813V
Governor:   performance
Freq [MHz]: 800000
Temp [ºC]: 56382
volt=1.2813V
Governor:   performance
Freq [MHz]: 800000
Temp [ºC]: 56920
volt=1.2813V
Governor:   performance
Freq [MHz]: 800000
Temp [ºC]: 56382
volt=1.2813V
Governor:   performance
Freq [MHz]: 800000
Temp [ºC]: 56382
volt=1.2813V
Governor:   performance
Freq [MHz]: 800000
Temp [ºC]: 56382
volt=1.2813V
Governor:   performance
Freq [MHz]: 800000
Temp [ºC]: 56382
volt=1.2813V
Governor:   performance
Freq [MHz]: 800000
Temp [ºC]: 55844
volt=1.2813V
Governor:   performance
Freq [MHz]: 800000
Temp [ºC]: 56382
volt=1.2813V
Governor:   performance
Freq [MHz]: 800000
Temp [ºC]: 56382
volt=1.2813V
Governor:   performance
Freq [MHz]: 800000
Temp [ºC]: 56382
volt=1.2813V
Governor:   performance
Freq [MHz]: 800000
Temp [ºC]: 56382
volt=1.2813V
Governor:   performance
Freq [MHz]: 800000
Temp [ºC]: 56920
volt=1.2813V
Governor:   performance
Freq [MHz]: 800000
Temp [ºC]: 56920
volt=1.2813V
Governor:   performance
Freq [MHz]: 800000
Temp [ºC]: 56920
volt=1.2813V
Governor:   performance
Freq [MHz]: 800000
Temp [ºC]: 56920
volt=1.2813V
Governor:   performance
Freq [MHz]: 800000
Temp [ºC]: 56920
volt=1.2813V
Governor:   performance
Freq [MHz]: 800000
Temp [ºC]: 56920
volt=1.2813V
Governor:   performance
Freq [MHz]: 800000
Temp [ºC]: 56920
volt=1.2813V
Governor:   performance
Freq [MHz]: 800000
Temp [ºC]: 56920
volt=1.2813V
Governor:   performance
Freq [MHz]: 800000
Temp [ºC]: 56920
volt=1.2813V
Governor:   performance
Freq [MHz]: 800000
Temp [ºC]: 56920
volt=1.2813V
Governor:   performance
Freq [MHz]: 800000
Temp [ºC]: 56920
volt=1.2813V
Governor:   performance
Freq [MHz]: 800000
Temp [ºC]: 56920
volt=1.2813V
Governor:   performance
Freq [MHz]: 800000
Temp [ºC]: 56920
volt=1.2813V
Governor:   performance
Freq [MHz]: 800000
Temp [ºC]: 56920
volt=1.2813V
Governor:   performance
Freq [MHz]: 800000
Temp [ºC]: 57458
volt=1.2813V
