#8193685
Time,DC Watts PH1 PPA1,DC Current PH1 PPA1,DC Voltage PH1 PPA1,Peak Current PH1 PPA1,Peak Voltage PH1 PPA1
08:51:00.868,1.84580E0,-3.49380E-1,-5.28320E0,-5.25850E-1,-5.69630E0
08:51:02.868,3.39910E0,-6.45850E-1,-5.26310E0,-9.12000E-1,-5.66790E0
08:51:03.868,4.13330E0,-7.86830E-1,-5.25310E0,-9.19040E-1,-5.66730E0
08:51:04.868,4.13360E0,-7.86870E-1,-5.25330E0,-9.22770E-1,-5.66800E0
08:51:05.869,4.14590E0,-7.89740E-1,-5.24970E0,-9.34700E-1,-5.63920E0
08:51:06.884,4.16690E0,-7.93690E-1,-5.25000E0,-1.05230E0,-5.65640E0
08:51:08.869,4.16730E0,-7.93910E-1,-5.24910E0,-9.52110E-1,-5.66140E0
08:51:10.869,4.17680E0,-7.95260E-1,-5.25210E0,-9.53640E-1,-5.63900E0
08:51:11.869,4.17900E0,-7.95730E-1,-5.25180E0,-9.59980E-1,-5.63890E0
08:51:13.869,4.18040E0,-7.95830E-1,-5.25290E0,-9.18400E-1,-5.65640E0
08:51:14.870,4.18280E0,-7.96280E-1,-5.25290E0,-9.48330E-1,-5.70170E0
08:51:15.870,4.18560E0,-7.96810E-1,-5.25290E0,-9.42420E-1,-5.68750E0
08:51:16.870,4.18810E0,-7.97270E-1,-5.25300E0,-9.45940E-1,-5.67280E0
08:51:18.870,4.19240E0,-7.97940E-1,-5.25400E0,-9.33250E-1,-5.66400E0
08:51:19.870,4.19510E0,-7.98440E-1,-5.25410E0,-9.33340E-1,-5.65770E0
08:51:21.902,4.20120E0,-7.99420E-1,-5.25530E0,-9.48600E-1,-5.65810E0
08:51:22.871,4.20330E0,-7.99750E-1,-5.25580E0,-9.43550E-1,-5.66730E0
08:51:23.871,4.20480E0,-8.00140E-1,-5.25500E0,-9.42350E-1,-5.68450E0
08:51:24.886,4.20390E0,-8.00070E-1,-5.25440E0,-9.46920E-1,-5.63920E0
08:51:25.871,4.20520E0,-8.00320E-1,-5.25440E0,-9.44160E-1,-5.65090E0
08:51:26.871,4.21460E0,-8.02190E-1,-5.25390E0,-9.81250E-1,-5.65070E0
08:51:27.871,4.21190E0,-8.01710E-1,-5.25370E0,-9.72400E-1,-5.65770E0
08:51:28.871,4.21260E0,-8.01700E-1,-5.25460E0,-9.61820E-1,-5.66310E0
08:51:30.872,4.21280E0,-8.01510E-1,-5.25610E0,-9.45760E-1,-5.65070E0
08:51:31.872,4.21940E0,-8.02630E-1,-5.25690E0,-9.63210E-1,-5.65020E0
08:51:32.872,4.21810E0,-8.02420E-1,-5.25670E0,-9.59220E-1,-5.66080E0
08:51:34.872,4.21570E0,-8.02000E-1,-5.25650E0,-9.50370E-1,-5.65250E0
08:51:35.872,4.21600E0,-8.01990E-1,-5.25690E0,-9.49700E-1,-5.66530E0
08:51:37.872,4.22240E0,-8.03160E-1,-5.25730E0,-9.50510E-1,-5.66440E0
08:51:39.920,4.21840E0,-8.02310E-1,-5.25780E0,-9.60620E-1,-5.67910E0
08:51:40.873,4.21910E0,-8.02470E-1,-5.25770E0,-9.54480E-1,-5.67850E0
08:51:41.873,4.23510E0,-8.06280E-1,-5.25270E0,-9.81250E-1,-5.64500E0
08:51:42.873,4.22920E0,-8.05110E-1,-5.25300E0,-9.64930E-1,-5.65960E0
08:51:43.873,4.22780E0,-8.04840E-1,-5.25300E0,-9.57190E-1,-5.66260E0
08:51:44.873,4.22700E0,-8.04630E-1,-5.25330E0,-9.56110E-1,-5.65820E0
08:51:45.889,4.22750E0,-8.04520E-1,-5.25470E0,-9.25970E-1,-5.66210E0
08:51:47.874,4.22690E0,-8.04010E-1,-5.25730E0,-9.33400E-1,-5.64200E0
08:51:48.874,4.22720E0,-8.04160E-1,-5.25670E0,-9.29230E-1,-5.64790E0
08:51:50.889,4.23090E0,-8.05470E-1,-5.25270E0,-9.18120E-1,-5.35100E0
08:51:51.874,4.23400E0,-8.06080E-1,-5.25270E0,-9.25670E-1,-5.35680E0
08:51:52.874,4.23410E0,-8.05970E-1,-5.25340E0,-9.20810E-1,-5.37280E0
08:51:53.906,4.23100E0,-8.05190E-1,-5.25470E0,-9.25110E-1,-5.63530E0
08:51:55.875,4.23160E0,-8.05090E-1,-5.25600E0,-9.46010E-1,-5.66460E0
08:51:56.875,4.23230E0,-8.05450E-1,-5.25460E0,-9.53510E-1,-5.67600E0
08:51:57.875,4.23320E0,-8.05730E-1,-5.25380E0,-9.52360E-1,-5.66980E0
08:51:58.875,4.23120E0,-8.05520E-1,-5.25270E0,-9.52370E-1,-5.66790E0
08:51:59.875,4.23180E0,-8.05540E-1,-5.25330E0,-9.51080E-1,-5.67160E0
08:52:00.875,4.23060E0,-8.05340E-1,-5.25310E0,-9.47580E-1,-5.66580E0
08:52:01.875,4.23080E0,-8.05400E-1,-5.25310E0,-9.51700E-1,-5.66710E0
08:52:02.875,4.23230E0,-8.06070E-1,-5.25060E0,-9.48970E-1,-5.66970E0
08:52:04.876,4.23350E0,-8.05790E-1,-5.25390E0,-9.45090E-1,-5.66910E0
08:52:06.876,4.23670E0,-8.06320E-1,-5.25440E0,-9.61190E-1,-5.66970E0
08:52:07.892,4.23570E0,-8.06380E-1,-5.25270E0,-9.58860E-1,-5.65250E0
08:52:08.907,4.23590E0,-8.05990E-1,-5.25550E0,-9.48380E-1,-5.64680E0
08:52:09.892,4.23550E0,-8.05930E-1,-5.25540E0,-9.50760E-1,-5.64840E0
08:52:10.876,4.23810E0,-8.06670E-1,-5.25390E0,-9.65840E-1,-5.66390E0
08:52:11.892,4.23790E0,-8.06620E-1,-5.25390E0,-9.62950E-1,-5.66800E0
08:52:13.892,4.23980E0,-8.07310E-1,-5.25170E0,-9.33960E-1,-5.67700E0
08:52:14.877,4.24020E0,-8.07410E-1,-5.25160E0,-9.38250E-1,-5.68290E0
08:52:15.892,4.23560E0,-8.06610E-1,-5.25110E0,-9.36160E-1,-5.62960E0
08:52:16.877,4.24760E0,-8.09290E-1,-5.24850E0,-9.71660E-1,-5.63530E0
08:52:18.877,1.87300E0,-3.54480E-1,-5.28370E0,-5.77730E-1,-5.69390E0
08:52:19.893,1.86930E0,-3.53810E-1,-5.28350E0,-5.63530E-1,-5.69300E0
08:52:20.877,1.87140E0,-3.54200E-1,-5.28370E0,-6.42040E-1,-5.66900E0
08:52:21.893,1.86940E0,-3.53810E-1,-5.28340E0,-6.24410E-1,-5.67470E0
08:52:22.878,1.86550E0,-3.53110E-1,-5.28320E0,-6.01850E-1,-5.67420E0
08:52:23.893,1.90880E0,-3.61550E-1,-5.27960E0,-8.02040E-1,-5.69890E0
08:52:24.878,1.89860E0,-3.59610E-1,-5.27950E0,-7.56940E-1,-5.69710E0
08:52:25.894,1.88940E0,-3.58080E-1,-5.27640E0,-8.11040E-1,-5.70400E0
08:52:26.894,1.85350E0,-3.51170E-1,-5.27800E0,-5.04930E-1,-5.65820E0
08:52:27.894,1.85920E0,-3.52190E-1,-5.27890E0,-5.57210E-1,-5.67410E0
08:52:29.894,1.84580E0,-3.49480E-1,-5.28160E0,-4.77000E-1,-5.67540E0
08:52:30.879,4.16270E0,-7.92160E-1,-5.25490E0,-9.41400E-1,-5.69830E0
08:52:31.894,4.18390E0,-7.96380E-1,-5.25360E0,-9.57110E-1,-5.72120E0
08:52:32.879,4.18690E0,-7.96930E-1,-5.25380E0,-9.46930E-1,-5.70290E0
08:52:34.879,4.20120E0,-7.99840E-1,-5.25250E0,-9.59380E-1,-5.64720E0
08:52:35.895,4.20180E0,-8.00020E-1,-5.25210E0,-9.76090E-1,-5.65300E0
08:52:36.879,4.20400E0,-8.00530E-1,-5.25150E0,-9.58280E-1,-5.66440E0
08:52:37.895,4.21040E0,-8.01920E-1,-5.25040E0,-9.62110E-1,-5.66340E0
08:52:39.895,4.20980E0,-8.02490E-1,-5.24590E0,-9.38670E-1,-5.64890E0
08:52:41.895,4.21580E0,-8.03080E-1,-5.24950E0,-9.38250E-1,-5.66220E0
08:52:42.911,4.21840E0,-8.03300E-1,-5.25130E0,-9.54200E-1,-5.62960E0
08:52:44.880,4.21580E0,-8.03380E-1,-5.24760E0,-9.63630E-1,-5.66560E0
08:52:45.896,4.21800E0,-8.03670E-1,-5.24840E0,-9.57480E-1,-5.66960E0
08:52:46.880,4.21750E0,-8.02970E-1,-5.25240E0,-9.36160E-1,-5.66390E0
08:52:48.881,4.22380E0,-8.04370E-1,-5.25110E0,-9.24520E-1,-5.66390E0
08:52:49.896,4.22530E0,-8.04410E-1,-5.25270E0,-9.58860E-1,-5.64100E0
08:52:51.897,4.21670E0,-8.03370E-1,-5.24880E0,-9.51810E-1,-5.65100E0
08:52:52.897,4.22550E0,-8.04550E-1,-5.25190E0,-9.24580E-1,-5.68500E0
08:52:54.881,4.23350E0,-8.06550E-1,-5.24890E0,-9.61820E-1,-5.63920E0
08:52:55.897,4.22220E0,-8.04590E-1,-5.24760E0,-9.65900E-1,-5.61630E0
08:52:56.881,4.22130E0,-8.04360E-1,-5.24810E0,-9.56370E-1,-5.62480E0
08:52:58.882,4.22500E0,-8.04490E-1,-5.25180E0,-9.29810E-1,-5.67930E0
08:52:59.897,4.23170E0,-8.05720E-1,-5.25210E0,-9.48440E-1,-5.69650E0
08:53:00.929,4.23180E0,-8.05780E-1,-5.25180E0,-9.53090E-1,-5.63350E0
08:53:01.898,4.23170E0,-8.05730E-1,-5.25200E0,-9.53750E-1,-5.64750E0
08:53:02.882,4.22540E0,-8.04630E-1,-5.25130E0,-9.44950E-1,-5.63920E0
08:53:04.882,4.22780E0,-8.05040E-1,-5.25170E0,-9.49430E-1,-5.64990E0
08:53:05.898,4.22770E0,-8.05360E-1,-5.24950E0,-9.57750E-1,-5.63350E0
08:53:07.898,4.23730E0,-8.07430E-1,-5.24780E0,-9.46310E-1,-5.65460E0
08:53:09.899,4.23810E0,-8.07830E-1,-5.24630E0,-9.60120E-1,-5.65130E0
08:53:11.899,4.23560E0,-8.06910E-1,-5.24920E0,-9.32720E-1,-5.64490E0
08:53:12.883,4.23050E0,-8.05980E-1,-5.24890E0,-9.66480E-1,-5.66210E0
08:53:13.915,4.23060E0,-8.06020E-1,-5.24870E0,-9.53090E-1,-5.63920E0
08:53:14.884,4.23270E0,-8.06440E-1,-5.24870E0,-9.55580E-1,-5.64400E0
08:53:16.884,4.23550E0,-8.06910E-1,-5.24900E0,-9.53400E-1,-5.62200E0
08:53:18.884,4.24310E0,-8.08200E-1,-5.25000E0,-9.78700E-1,-5.65060E0
08:53:19.900,4.24710E0,-8.09140E-1,-5.24890E0,-1.00900E0,-5.62200E0
08:53:20.884,4.24640E0,-8.09030E-1,-5.24870E0,-9.92840E-1,-5.62800E0
08:53:21.900,4.24090E0,-8.08160E-1,-5.24760E0,-9.57510E-1,-5.64420E0
08:53:22.885,4.24270E0,-8.08550E-1,-5.24730E0,-9.66470E-1,-5.64460E0
08:53:24.885,4.24340E0,-8.08500E-1,-5.24840E0,-9.50080E-1,-5.65950E0
08:53:25.900,4.24270E0,-8.08430E-1,-5.24810E0,-9.47350E-1,-5.65370E0
08:53:26.885,4.23860E0,-8.07700E-1,-5.24780E0,-9.46190E-1,-5.65490E0
08:53:27.901,4.23970E0,-8.08000E-1,-5.24710E0,-9.54760E-1,-5.65210E0
08:53:28.885,4.24210E0,-8.08440E-1,-5.24720E0,-9.53820E-1,-5.65070E0
08:53:30.885,4.24430E0,-8.08150E-1,-5.25190E0,-9.61000E-1,-5.63740E0
08:53:31.901,4.24310E0,-8.07930E-1,-5.25180E0,-9.59390E-1,-5.64550E0
08:53:32.886,4.24250E0,-8.07900E-1,-5.25120E0,-9.58010E-1,-5.64590E0
08:53:33.933,4.24080E0,-8.07350E-1,-5.25270E0,-9.74260E-1,-5.64200E0
08:53:34.886,4.24400E0,-8.07900E-1,-5.25320E0,-9.73250E-1,-5.64690E0
08:53:35.933,4.24580E0,-8.08230E-1,-5.25320E0,-9.70980E-1,-5.65380E0
08:53:36.886,4.24900E0,-8.08450E-1,-5.25570E0,-9.60080E-1,-5.66780E0
08:53:37.917,4.24130E0,-8.07310E-1,-5.25360E0,-9.57170E-1,-5.63350E0
08:53:39.902,4.25150E0,-8.09560E-1,-5.25170E0,-9.50920E-1,-5.66250E0
08:53:40.887,4.25170E0,-8.09580E-1,-5.25170E0,-9.54750E-1,-5.65720E0
08:53:41.902,4.24560E0,-8.08640E-1,-5.25030E0,-9.33890E-1,-5.63920E0
08:53:42.887,4.25080E0,-8.09730E-1,-5.24960E0,-9.67060E-1,-5.64490E0
08:53:43.902,4.24620E0,-8.08890E-1,-5.24940E0,-9.59620E-1,-5.65410E0
08:53:44.887,4.24620E0,-8.08870E-1,-5.24960E0,-9.58660E-1,-5.65730E0
08:53:45.903,1.88730E0,-3.57420E-1,-5.28040E0,-5.85290E-1,-5.66780E0
08:53:46.887,1.85730E0,-3.51530E-1,-5.28350E0,-7.26710E-1,-5.66780E0
08:53:48.919,1.84870E0,-3.49940E-1,-5.28280E0,-4.93920E-1,-5.69070E0
08:53:49.903,1.84770E0,-3.49800E-1,-5.28220E0,-5.02070E-1,-5.67930E0
