PID de las metricas: 5357
Governor:   performance
Freq [MHz]: 700000
Temp [ºC]: 37552
volt=1.2750V
Governor:   performance
Freq [MHz]: 700000
Temp [ºC]: 39704
volt=1.2750V
Governor:   performance
Freq [MHz]: 700000
Temp [ºC]: 40780
volt=1.2750V
Governor:   performance
Freq [MHz]: 700000
Temp [ºC]: 41318
volt=1.2750V
Governor:   performance
Freq [MHz]: 700000
Temp [ºC]: 41318
volt=1.2750V
Governor:   performance
Freq [MHz]: 700000
Temp [ºC]: 41856
volt=1.2750V
Governor:   performance
Freq [MHz]: 700000
Temp [ºC]: 41856
volt=1.2750V
Governor:   performance
Freq [MHz]: 700000
Temp [ºC]: 42394
volt=1.2750V
Governor:   performance
Freq [MHz]: 700000
Temp [ºC]: 42932
volt=1.2750V
Governor:   performance
Freq [MHz]: 700000
Temp [ºC]: 42394
volt=1.2750V
Governor:   performance
Freq [MHz]: 700000
Temp [ºC]: 42932
volt=1.2750V
Governor:   performance
Freq [MHz]: 700000
Temp [ºC]: 42932
volt=1.2750V
Governor:   performance
Freq [MHz]: 700000
Temp [ºC]: 42394
volt=1.2750V
Governor:   performance
Freq [MHz]: 700000
Temp [ºC]: 42932
volt=1.2750V
Governor:   performance
Freq [MHz]: 700000
Temp [ºC]: 43470
volt=1.2750V
Governor:   performance
Freq [MHz]: 700000
Temp [ºC]: 43470
volt=1.2750V
Governor:   performance
Freq [MHz]: 700000
Temp [ºC]: 43470
volt=1.2750V
Governor:   performance
Freq [MHz]: 700000
Temp [ºC]: 43470
volt=1.2750V
Governor:   performance
Freq [MHz]: 700000
Temp [ºC]: 43470
volt=1.2750V
Governor:   performance
Freq [MHz]: 700000
Temp [ºC]: 44008
volt=1.2750V
Governor:   performance
Freq [MHz]: 700000
Temp [ºC]: 43470
volt=1.2750V
Governor:   performance
Freq [MHz]: 700000
Temp [ºC]: 43470
volt=1.2750V
Governor:   performance
Freq [MHz]: 700000
Temp [ºC]: 44008
volt=1.2750V
Governor:   performance
Freq [MHz]: 700000
Temp [ºC]: 44008
volt=1.2750V
Governor:   performance
Freq [MHz]: 700000
Temp [ºC]: 44008
volt=1.2750V
Governor:   performance
Freq [MHz]: 700000
Temp [ºC]: 44008
volt=1.2750V
Governor:   performance
Freq [MHz]: 700000
Temp [ºC]: 44008
volt=1.2750V
Governor:   performance
Freq [MHz]: 700000
Temp [ºC]: 44008
volt=1.2750V
Governor:   performance
Freq [MHz]: 700000
Temp [ºC]: 44008
volt=1.2750V
Governor:   performance
Freq [MHz]: 700000
Temp [ºC]: 44008
volt=1.2750V
Governor:   performance
Freq [MHz]: 700000
Temp [ºC]: 44008
volt=1.2750V
Governor:   performance
Freq [MHz]: 700000
Temp [ºC]: 44008
volt=1.2750V
Governor:   performance
Freq [MHz]: 700000
Temp [ºC]: 44008
volt=1.2750V
Governor:   performance
Freq [MHz]: 700000
Temp [ºC]: 44008
volt=1.2750V
Governor:   performance
Freq [MHz]: 700000
Temp [ºC]: 44546
volt=1.2750V
Governor:   performance
Freq [MHz]: 700000
Temp [ºC]: 44546
volt=1.2750V
Governor:   performance
Freq [MHz]: 700000
Temp [ºC]: 44008
volt=1.2750V
Governor:   performance
Freq [MHz]: 700000
Temp [ºC]: 44008
volt=1.2750V
Governor:   performance
Freq [MHz]: 700000
Temp [ºC]: 44008
volt=1.2750V
Governor:   performance
Freq [MHz]: 700000
Temp [ºC]: 44008
volt=1.2750V
Governor:   performance
Freq [MHz]: 700000
Temp [ºC]: 45084
volt=1.2750V
Governor:   performance
Freq [MHz]: 700000
Temp [ºC]: 44546
volt=1.2750V
Governor:   performance
Freq [MHz]: 700000
Temp [ºC]: 44008
volt=1.2750V
Governor:   performance
Freq [MHz]: 700000
Temp [ºC]: 44008
volt=1.2750V
Governor:   performance
Freq [MHz]: 700000
Temp [ºC]: 44546
volt=1.2750V
Governor:   performance
Freq [MHz]: 700000
Temp [ºC]: 44008
volt=1.2750V
Governor:   performance
Freq [MHz]: 700000
Temp [ºC]: 44008
volt=1.2750V
Governor:   performance
Freq [MHz]: 700000
Temp [ºC]: 45084
volt=1.2750V
Governor:   performance
Freq [MHz]: 700000
Temp [ºC]: 44008
volt=1.2750V
Governor:   performance
Freq [MHz]: 700000
Temp [ºC]: 44008
volt=1.2750V
Governor:   performance
Freq [MHz]: 700000
Temp [ºC]: 45084
volt=1.2750V
Governor:   performance
Freq [MHz]: 700000
Temp [ºC]: 44008
volt=1.2750V
Governor:   performance
Freq [MHz]: 700000
Temp [ºC]: 45084
volt=1.2750V
Governor:   performance
Freq [MHz]: 700000
Temp [ºC]: 45084
volt=1.2750V
Governor:   performance
Freq [MHz]: 700000
Temp [ºC]: 45084
volt=1.2750V
Governor:   performance
Freq [MHz]: 700000
Temp [ºC]: 44546
volt=1.2750V
Governor:   performance
Freq [MHz]: 700000
Temp [ºC]: 45084
volt=1.2750V
Governor:   performance
Freq [MHz]: 700000
Temp [ºC]: 44546
volt=1.2750V
Governor:   performance
Freq [MHz]: 700000
Temp [ºC]: 45084
volt=1.2750V
Governor:   performance
Freq [MHz]: 700000
Temp [ºC]: 44546
volt=1.2750V
Governor:   performance
Freq [MHz]: 700000
Temp [ºC]: 45084
volt=1.2750V
Governor:   performance
Freq [MHz]: 700000
Temp [ºC]: 44546
volt=1.2750V
Governor:   performance
Freq [MHz]: 700000
Temp [ºC]: 44008
volt=1.2750V
Governor:   performance
Freq [MHz]: 700000
Temp [ºC]: 45084
volt=1.2750V
Governor:   performance
Freq [MHz]: 700000
Temp [ºC]: 44546
volt=1.2750V
Governor:   performance
Freq [MHz]: 700000
Temp [ºC]: 44546
volt=1.2750V
Governor:   performance
Freq [MHz]: 700000
Temp [ºC]: 44546
volt=1.2750V
Governor:   performance
Freq [MHz]: 700000
Temp [ºC]: 45084
volt=1.2750V
Governor:   performance
Freq [MHz]: 700000
Temp [ºC]: 44008
volt=1.2750V
Governor:   performance
Freq [MHz]: 700000
Temp [ºC]: 45084
volt=1.2750V
Governor:   performance
Freq [MHz]: 700000
Temp [ºC]: 44546
volt=1.2750V
Governor:   performance
Freq [MHz]: 700000
Temp [ºC]: 45084
volt=1.2750V
Governor:   performance
Freq [MHz]: 700000
Temp [ºC]: 45084
volt=1.2750V
Governor:   performance
Freq [MHz]: 700000
Temp [ºC]: 45084
volt=1.2750V
Governor:   performance
Freq [MHz]: 700000
Temp [ºC]: 45084
volt=1.2750V
Governor:   performance
Freq [MHz]: 700000
Temp [ºC]: 45084
volt=1.2750V
Governor:   performance
Freq [MHz]: 700000
Temp [ºC]: 45084
volt=1.2750V
Governor:   performance
Freq [MHz]: 700000
Temp [ºC]: 45084
volt=1.2750V
Governor:   performance
Freq [MHz]: 700000
Temp [ºC]: 45084
volt=1.2750V
Governor:   performance
Freq [MHz]: 700000
Temp [ºC]: 44546
volt=1.2750V
Governor:   performance
Freq [MHz]: 700000
Temp [ºC]: 45084
volt=1.2750V
Governor:   performance
Freq [MHz]: 700000
Temp [ºC]: 45084
volt=1.2750V
Governor:   performance
Freq [MHz]: 700000
Temp [ºC]: 45084
volt=1.2750V
Governor:   performance
Freq [MHz]: 700000
Temp [ºC]: 45084
volt=1.2750V
Governor:   performance
Freq [MHz]: 700000
Temp [ºC]: 44546
volt=1.2750V
Governor:   performance
Freq [MHz]: 700000
Temp [ºC]: 45084
volt=1.2750V
Governor:   performance
Freq [MHz]: 700000
Temp [ºC]: 45084
volt=1.2750V
Governor:   performance
Freq [MHz]: 700000
Temp [ºC]: 45084
volt=1.2750V
Governor:   performance
Freq [MHz]: 700000
Temp [ºC]: 45084
volt=1.2750V
Governor:   performance
Freq [MHz]: 700000
Temp [ºC]: 44546
volt=1.2750V
Governor:   performance
Freq [MHz]: 700000
Temp [ºC]: 45084
volt=1.2750V
Governor:   performance
Freq [MHz]: 700000
Temp [ºC]: 45084
volt=1.2750V
Governor:   performance
Freq [MHz]: 700000
Temp [ºC]: 44008
volt=1.2750V
Governor:   performance
Freq [MHz]: 700000
Temp [ºC]: 45084
volt=1.2750V
Governor:   performance
Freq [MHz]: 700000
Temp [ºC]: 45084
volt=1.2750V
Governor:   performance
Freq [MHz]: 700000
Temp [ºC]: 44546
volt=1.2750V
Governor:   performance
Freq [MHz]: 700000
Temp [ºC]: 45084
volt=1.2750V
Governor:   performance
Freq [MHz]: 700000
Temp [ºC]: 44546
volt=1.2750V
Governor:   performance
Freq [MHz]: 700000
Temp [ºC]: 45084
volt=1.2750V
Governor:   performance
Freq [MHz]: 700000
Temp [ºC]: 44546
volt=1.2750V
Governor:   performance
Freq [MHz]: 700000
Temp [ºC]: 45084
volt=1.2750V
Governor:   performance
Freq [MHz]: 700000
Temp [ºC]: 44546
volt=1.2750V
Governor:   performance
Freq [MHz]: 700000
Temp [ºC]: 45084
volt=1.2750V
Governor:   performance
Freq [MHz]: 700000
Temp [ºC]: 45084
volt=1.2750V
Governor:   performance
Freq [MHz]: 700000
Temp [ºC]: 45084
volt=1.2750V
Governor:   performance
Freq [MHz]: 700000
Temp [ºC]: 45084
volt=1.2750V
Governor:   performance
Freq [MHz]: 700000
Temp [ºC]: 45084
volt=1.2750V
Governor:   performance
Freq [MHz]: 700000
Temp [ºC]: 45084
volt=1.2750V
Governor:   performance
Freq [MHz]: 700000
Temp [ºC]: 45084
volt=1.2750V
Governor:   performance
Freq [MHz]: 700000
Temp [ºC]: 45084
volt=1.2750V
Governor:   performance
Freq [MHz]: 700000
Temp [ºC]: 45084
volt=1.2750V
Governor:   performance
Freq [MHz]: 700000
Temp [ºC]: 45084
volt=1.2750V
Governor:   performance
Freq [MHz]: 700000
Temp [ºC]: 44546
volt=1.2750V
Governor:   performance
Freq [MHz]: 700000
Temp [ºC]: 45084
volt=1.2750V
Governor:   performance
Freq [MHz]: 700000
Temp [ºC]: 45084
volt=1.2750V
Governor:   performance
Freq [MHz]: 700000
Temp [ºC]: 45084
volt=1.2750V
Governor:   performance
Freq [MHz]: 700000
Temp [ºC]: 45622
volt=1.2750V
Governor:   performance
Freq [MHz]: 700000
Temp [ºC]: 45084
volt=1.2750V
Governor:   performance
Freq [MHz]: 700000
Temp [ºC]: 45084
volt=1.2750V
Governor:   performance
Freq [MHz]: 700000
Temp [ºC]: 45084
volt=1.2750V
Governor:   performance
Freq [MHz]: 700000
Temp [ºC]: 45084
volt=1.2750V
Governor:   performance
Freq [MHz]: 700000
Temp [ºC]: 45084
volt=1.2750V
Governor:   performance
Freq [MHz]: 700000
Temp [ºC]: 45084
volt=1.2750V
Governor:   performance
Freq [MHz]: 700000
Temp [ºC]: 45084
volt=1.2750V
Governor:   performance
Freq [MHz]: 700000
Temp [ºC]: 45084
volt=1.2750V
Governor:   performance
Freq [MHz]: 700000
Temp [ºC]: 45084
volt=1.2750V
Governor:   performance
Freq [MHz]: 700000
Temp [ºC]: 45084
volt=1.2750V
Governor:   performance
Freq [MHz]: 700000
Temp [ºC]: 45084
volt=1.2750V
Governor:   performance
Freq [MHz]: 700000
Temp [ºC]: 45084
volt=1.2750V
Governor:   performance
Freq [MHz]: 700000
Temp [ºC]: 45084
volt=1.2750V
Governor:   performance
Freq [MHz]: 700000
Temp [ºC]: 45084
volt=1.2750V
Governor:   performance
Freq [MHz]: 700000
Temp [ºC]: 45084
volt=1.2750V
Governor:   performance
Freq [MHz]: 700000
Temp [ºC]: 45622
volt=1.2750V
Governor:   performance
Freq [MHz]: 700000
Temp [ºC]: 45084
volt=1.2750V
Governor:   performance
Freq [MHz]: 700000
Temp [ºC]: 45084
volt=1.2750V
Governor:   performance
Freq [MHz]: 700000
Temp [ºC]: 45084
volt=1.2750V
Governor:   performance
Freq [MHz]: 700000
Temp [ºC]: 45084
volt=1.2750V
Governor:   performance
Freq [MHz]: 700000
Temp [ºC]: 45084
volt=1.2750V
Governor:   performance
Freq [MHz]: 700000
Temp [ºC]: 45084
volt=1.2750V
Governor:   performance
Freq [MHz]: 700000
Temp [ºC]: 45084
volt=1.2750V
Governor:   performance
Freq [MHz]: 700000
Temp [ºC]: 45084
volt=1.2750V
Governor:   performance
Freq [MHz]: 700000
Temp [ºC]: 45084
volt=1.2750V
Governor:   performance
Freq [MHz]: 700000
Temp [ºC]: 45084
volt=1.2750V
Governor:   performance
Freq [MHz]: 700000
Temp [ºC]: 45084
volt=1.2750V
Tiempo inicial: dom mar 31 19:50:42 CEST 2019, Tiempo final: dom mar 31 19:53:25 CEST 2019
